…
## Summary Statistics

``` r
# arrange unique sequences by days since first infection (EPI_ISL_402124 is the reference genome and is thought to be the first Covid case in a human)
seq_data %>%
  group_by(ID) %>%
  summarize(day = unique(day)) %>%
  arrange(day)
```

    ## # A tibble: 41 x 2
    ##    ID                day
    ##    <fct>           <int>
    ##  1 EPI_ISL_402124      0
    ##  2 EPI_ISL_403928      2
    ##  3 EPI_ISL_450200     29
    ##  4 EPI_ISL_450203     33
    ##  5 EPI_ISL_412030     34
    ##  6 EPI_ISL_1263331    47
    ##  7 EPI_ISL_466615     48
    ##  8 EPI_ISL_415698     60
    ##  9 EPI_ISL_413647     62
    ## 10 EPI_ISL_414013     62
    ## # … with 31 more rows
…
            T_count=sum(Nucleotide=="T"),
            G_count=sum(Nucleotide=="G"),
            C_count=sum(Nucleotide=="C"),
            "-_count"=sum(Nucleotide=="-"),
            N_count=sum(Nucleotide=="N")) %>%
  mutate(match=A_count==41 |
           T_count==41 |
           G_count==41 |
           C_count==41 |
           "-_count"==41 | 
           N_count==41)
matches
```

    ## # A tibble: 29,903 x 8
    ##    Position A_count T_count G_count C_count `-_count` N_count match
    ##       <int>   <int>   <int>   <int>   <int>     <int>   <int> <lgl>
    ##  1        1       8       0       0       0        33       0 FALSE
    ##  2        2       0       8       0       0        33       0 FALSE
    ##  3        3       0      10       0       0        31       0 FALSE
    ##  4        4      11       0       0       0        30       0 FALSE
    ##  5        5      14       0       0       0        27       0 FALSE
    ##  6        6      14       0       0       0        27       0 FALSE
    ##  7        7       0       0      16       0        25       0 FALSE
    ##  8        8       0       0      16       0        25       0 FALSE
    ##  9        9       0      18       0       0        23       0 FALSE
    ## 10       10       0      18       0       0        23       0 FALSE
    ## # … with 29,893 more rows
…
    ##   mean(patient_age, na.rm = TRUE)
    ## 1                           55.44

``` r
# show locations of data collected
seq_data %>%
  group_by(location) %>%
  summarize(n()/29903)
```

    ## # A tibble: 24 x 2
    ##    location    `n()/29903`
    ##    <fct>             <dbl>
    ##  1 Afghanistan           1
    ##  2 Algeria               1
    ##  3 Angola                1
    ##  4 Argentina             1
    ##  5 Australia             1
    ##  6 Bahrain               1
    ##  7 Bangladesh            1
    ##  8 Belgium               1
    ##  9 Chile                 1
    ## 10 Ecuador               1
    ## # … with 14 more rows
…
``` r
# table of each sequence nucleotides at positions where there is a difference
mismatches <- matches %>%
  filter(match==FALSE) %>%
  select(Position)
seq_data %>%
  filter(Position %in% mismatches$Position) %>%
  select(Position, Nucleotide, ID) %>%
  pivot_wider(names_from=Position, values_from=Nucleotide)
```

    ## # A tibble: 41 x 2,098
    ##    ID    `1`   `2`   `3`   `4`   `5`   `6`   `7`   `8`   `9`   `10`  `11`  `12` 
    ##    <fct> <fct> <fct> <fct> <fct> <fct> <fct> <fct> <fct> <fct> <fct> <fct> <fct>
    ##  1 EPI_… A     T     T     A     A     A     G     G     T     T     T     A    
    ##  2 EPI_… A     T     T     A     A     A     G     G     T     T     T     A    
    ##  3 EPI_… -     -     -     -     -     -     -     -     -     -     -     -    
    ##  4 EPI_… -     -     -     -     -     -     G     G     T     T     T     A    
    ##  5 EPI_… -     -     -     -     -     -     -     -     -     -     -     -    
    ##  6 EPI_… -     -     -     -     -     -     -     -     -     -     -     -    
    ##  7 EPI_… -     -     -     -     -     -     -     -     -     -     -     -    
    ##  8 EPI_… -     -     -     -     -     -     -     -     -     -     -     -    
    ##  9 EPI_… A     T     T     A     A     A     G     G     T     T     T     A    
    ## 10 EPI_… A     T     T     A     A     A     G     G     T     T     T     A    
    ## # … with 31 more rows, and 2,085 more variables: 13 <fct>, 14 <fct>, 15 <fct>,
    ## #   16 <fct>, 17 <fct>, 18 <fct>, 19 <fct>, 20 <fct>, 21 <fct>, 22 <fct>,
    ## #   23 <fct>, 24 <fct>, 25 <fct>, 26 <fct>, 27 <fct>, 28 <fct>, 29 <fct>,
    ## #   30 <fct>, 31 <fct>, 32 <fct>, 33 <fct>, 34 <fct>, 35 <fct>, 36 <fct>,
    ## #   37 <fct>, 38 <fct>, 39 <fct>, 40 <fct>, 41 <fct>, 42 <fct>, 43 <fct>,
    ## #   44 <fct>, 45 <fct>, 46 <fct>, 47 <fct>, 48 <fct>, 49 <fct>, 50 <fct>,
    ## #   51 <fct>, 52 <fct>, 53 <fct>, 54 <fct>, 76 <fct>, 78 <fct>, 79 <fct>,
    ## #   80 <fct>, 81 <fct>, 82 <fct>, 83 <fct>, 84 <fct>, 85 <fct>, 86 <fct>,
    ## #   87 <fct>, 88 <fct>, 89 <fct>, 90 <fct>, 91 <fct>, 92 <fct>, 93 <fct>,
…
